<svg width="40" height="40" viewBox="0 0 40 40" fill="none" xmlns="http://www.w3.org/2000/svg">
<mask id="mask0" mask-type="alpha" maskUnits="userSpaceOnUse" x="2" y="0" width="22" height="21">
<path d="M2.5 0.00192261H23.1249V20.4637H2.5V0.00192261Z" fill="white"/>
</mask>
<g mask="url(#mask0)">
<path fill-rule="evenodd" clip-rule="evenodd" d="M19.6578 0.00192261C19.7928 0.0546707 23.1249 2.03609 23.1249 2.03609L16.2336 6.13909L23.0703 10.2277L12.8465 16.3762L12.8187 20.4637L9.41694 18.4425V14.3305L16.2147 10.2445L12.8187 8.20035L6.00094 12.2718L5.96586 16.4204L2.5 14.3473V10.2834L19.6578 0.00192261Z" fill="#FF7267"/>
</g>
<mask id="mask1" mask-type="alpha" maskUnits="userSpaceOnUse" x="2" y="21" width="22" height="19">
<path d="M2.50684 21.8762H23.1164V39.8438H2.50684V21.8762Z" fill="white"/>
</mask>
<g mask="url(#mask1)">
<path fill-rule="evenodd" clip-rule="evenodd" d="M2.52308 29.7906C2.50028 29.647 2.50815 25.7771 2.50815 25.7771L9.37893 29.8276L9.41446 21.8762L19.6595 27.8559L23.1059 25.9099L23.0993 29.86L19.646 31.8421L12.836 27.8652L12.8072 31.8213L19.615 35.8227L23.1164 33.8537L23.098 37.8848L19.6852 39.8438L2.52308 29.7906Z" fill="#FF7267"/>
</g>
<mask id="mask2" mask-type="alpha" maskUnits="userSpaceOnUse" x="23" y="7" width="15" height="25">
<path d="M23.1299 7.50232H37.4928V31.8723H23.1299V7.50232Z" fill="white"/>
</mask>
<g mask="url(#mask2)">
<path fill-rule="evenodd" clip-rule="evenodd" d="M37.4721 29.8086C37.3548 29.9021 33.8621 31.8723 33.8621 31.8723L33.8935 23.7349L26.7069 27.766L26.6999 15.663L23.1299 13.6135L26.6942 11.6012L30.3003 13.6382L30.3032 21.6844L33.8846 19.6886L33.905 11.6319L30.2853 9.54569L33.9289 7.50232L37.4928 9.51551L37.4721 29.8086Z" fill="#FF7267"/>
</g>
<path fill-rule="evenodd" clip-rule="evenodd" d="M26.875 31.8314L29.9723 30L30 33.735L26.875 35.625V31.8314Z" fill="#FF7267"/>
<path fill-rule="evenodd" clip-rule="evenodd" d="M5.625 20.0082L2.5 18.125V21.8743L5.625 23.75V20.0082Z" fill="#FF7267"/>
<path fill-rule="evenodd" clip-rule="evenodd" d="M30 5.62946L26.5624 3.75L23.125 5.59583L26.5625 7.5L30 5.62946Z" fill="#FF7267"/>
</svg>
