<svg width="336" height="338" viewBox="0 0 336 338" fill="none" xmlns="http://www.w3.org/2000/svg">
<g clip-path="url(#clip0)">
<path d="M142.056 233.524C142.44 236.202 141.595 238.87 140.702 241.404C133.611 261.64 123.11 280.514 109.652 297.208C88.0684 298.664 66.6332 301.815 45.5442 306.633C39.6124 307.996 33.6518 309.513 27.5761 309.513C21.5003 309.513 15.175 307.977 10.6734 303.888C8.14902 301.604 6.21975 298.177 7.074 294.885C7.92825 291.593 11.4509 289.433 14.6855 288.003C25.7304 283.161 37.6905 280.761 49.7483 280.968C35.5907 270.496 21.1164 259.257 13.1786 243.535C11.9596 241.116 10.9709 237.997 12.6698 235.856C13.8408 234.397 15.8757 234.013 17.7282 233.937C25.81 233.658 33.5943 237.075 40.3131 241.461C48.9629 247.08 56.4566 254.303 62.3893 262.741C57.662 244.598 54.3882 226.108 52.599 207.446C52.0807 202.128 51.7639 196.475 54.2691 191.772C54.6976 190.808 55.4381 190.017 56.3711 189.526C58.406 188.662 60.5464 190.418 61.9958 192.098C76.3933 208.645 83.0066 230.673 85.5309 252.461C86.7416 235.794 89.541 219.28 93.8911 203.146C95.494 197.195 97.7305 190.812 102.894 187.51C106.503 188.796 107.991 193.039 108.769 196.792C113.309 218.867 109.104 241.999 100.879 263.019C109.796 250.589 119.116 237.929 132.112 229.8C133.609 228.84 135.26 227.966 137.017 228.091C139.704 228.245 141.701 230.865 142.056 233.524Z" fill="#C1ECE6"/>
<path d="M130.087 245.349C129.127 244.638 127.716 244.984 126.698 245.454C125.321 246.163 124.01 246.995 122.782 247.94C117.777 251.672 113.173 255.915 109.047 260.6C104.545 265.515 100.226 270.621 95.4654 275.285C97.7978 261.522 102.184 248.103 103.067 234.119C103.183 232.353 103.24 230.596 103.221 228.83C103.348 227.289 103.211 225.738 102.818 224.242C102.747 223.965 102.617 223.706 102.438 223.483C102.259 223.259 102.035 223.076 101.779 222.946C101.524 222.817 101.244 222.743 100.958 222.729C100.672 222.716 100.387 222.764 100.121 222.87C98.8153 223.446 98.0378 225.135 97.3371 226.296C93.7857 232.266 91.6741 238.966 89.6584 245.579C87.4124 253.066 85.4703 260.629 83.8322 268.269C82.0277 262.808 80.2232 257.356 78.3708 251.952C77.3725 249.034 76.3583 246.123 75.3281 243.218C74.4561 240.552 73.3911 237.954 72.1414 235.443C71.5177 234.214 70.7544 233.061 69.8666 232.007C69.1659 231.22 68.0813 230.52 66.9871 231.115C66.6114 231.397 66.3035 231.76 66.086 232.177C65.8685 232.594 65.7468 233.054 65.7297 233.524C65.509 235.011 65.3842 236.518 65.2786 238.016C64.9054 244.205 65.1047 250.416 65.8737 256.569C66.6224 263.029 67.7934 269.431 69.022 275.813C62.4951 269.632 55.6419 263.288 47.2529 259.794C46.4009 259.37 45.438 259.223 44.4982 259.372C44.0823 259.478 43.7079 259.707 43.4238 260.029C43.1397 260.35 42.9588 260.75 42.9048 261.176C42.8479 262.182 43.0847 263.182 43.5863 264.056C44.0758 265.063 44.6038 266.052 45.1797 267.012C47.5706 270.83 50.4524 274.319 53.751 277.387C57.1918 280.653 60.7992 283.738 64.5587 286.631C55.2963 287.12 45.6308 287.84 37.2994 292.217C36.2489 292.76 35.2298 293.363 34.2471 294.021C33.2537 294.625 32.3628 295.383 31.6076 296.267C31.2667 296.656 31.0174 297.117 30.8778 297.615C30.7383 298.114 30.7122 298.637 30.8013 299.147C30.9313 299.628 31.1619 300.076 31.4779 300.462C31.7939 300.847 32.1882 301.161 32.6346 301.383C34.9415 302.455 37.4944 302.886 40.0253 302.631C42.8025 302.418 45.5611 302.007 48.2799 301.402C54.6724 300.154 60.9785 298.523 67.2847 296.833C67.8798 296.67 67.5438 295.778 66.9487 295.931C61.6792 297.323 56.3905 298.715 51.073 299.857C48.4335 300.423 45.7748 300.951 43.0968 301.345C40.6422 301.791 38.129 301.81 35.6677 301.402C34.4957 301.239 33.3817 300.791 32.4234 300.097C32.2078 299.924 32.0283 299.711 31.8951 299.469C31.762 299.227 31.6779 298.961 31.6476 298.686C31.6172 298.412 31.6414 298.134 31.7185 297.869C31.7956 297.603 31.9243 297.356 32.0971 297.141C32.7669 296.243 33.6006 295.481 34.5543 294.895C35.482 294.27 36.4433 293.696 37.4338 293.176C41.4911 291.101 45.8516 289.682 50.3532 288.972C55.4827 288.171 60.6561 287.681 65.8449 287.504C65.9392 287.493 66.0284 287.456 66.1017 287.395C66.1749 287.335 66.2291 287.255 66.2575 287.164C66.286 287.074 66.2876 286.977 66.262 286.886C66.2365 286.794 66.1849 286.712 66.1137 286.65C59.462 281.409 52.676 276.025 47.7424 269.027C46.5023 267.281 45.4137 265.431 44.4886 263.499C44.1238 262.721 43.5959 261.579 44.1334 260.744C44.6709 259.909 46.0531 260.274 46.8498 260.6C50.9187 262.352 54.7293 264.651 58.1758 267.434C62.1783 270.534 65.8545 274.028 69.5499 277.512C69.624 277.569 69.7129 277.604 69.806 277.612C69.8991 277.62 69.9926 277.601 70.0754 277.558C70.1582 277.514 70.2268 277.448 70.2731 277.367C70.3195 277.286 70.3416 277.193 70.3369 277.1C68.1389 265.582 65.9313 253.978 66.1329 242.22C66.1276 239.28 66.349 236.343 66.7951 233.437C66.8429 232.964 67.0115 232.512 67.2847 232.122C67.7838 231.547 68.4749 231.911 68.9356 232.334C69.8226 233.276 70.5665 234.343 71.1432 235.501C72.3742 237.855 73.4049 240.308 74.2243 242.834C75.2225 245.63 76.2015 248.43 77.1614 251.232C79.321 257.548 81.4134 263.892 83.5059 270.227C83.5161 270.355 83.5764 270.473 83.6736 270.555C83.7708 270.638 83.8969 270.679 84.0242 270.669C84.1515 270.659 84.2695 270.598 84.3523 270.501C84.4351 270.404 84.4759 270.278 84.4657 270.15C85.9439 263.15 87.6652 256.207 89.6296 249.322C91.4725 242.882 93.3634 236.346 96.3485 230.299C97.0695 228.812 97.8672 227.364 98.7385 225.96C99.2184 225.193 100.658 222.591 101.752 224.041C102.046 224.518 102.211 225.064 102.232 225.624C102.319 226.469 102.319 227.333 102.338 228.187C102.338 229.934 102.338 231.691 102.232 233.437C101.724 240.249 100.685 247.011 99.1224 253.661C97.4715 261.263 95.571 268.816 94.3232 276.504C94.3104 276.607 94.3305 276.711 94.3806 276.802C94.4308 276.893 94.5084 276.965 94.6022 277.009C94.6961 277.053 94.8015 277.065 94.9031 277.045C95.0047 277.026 95.0975 276.974 95.1679 276.898C103.941 268.576 111.024 258.556 120.45 250.906C121.611 249.946 122.802 249.063 124.04 248.219C125.158 247.332 126.391 246.603 127.706 246.049C128.259 245.806 128.885 245.785 129.453 245.992C130.135 246.337 130.144 247.192 130.144 247.863C130.09 249.595 129.746 251.304 129.127 252.922C127.922 256.089 126.55 259.19 125.019 262.213C123.541 265.271 121.992 268.298 120.373 271.293C116.683 278.079 112.613 284.651 108.183 290.978C107.828 291.478 108.567 292.101 108.922 291.593C112.995 285.776 116.766 279.753 120.22 273.548C121.966 270.419 123.627 267.242 125.201 264.017C126.766 260.811 128.34 257.577 129.636 254.256C130.286 252.668 130.731 251.004 130.96 249.303C131.104 247.988 131.286 246.203 130.087 245.349Z" fill="#53A99E"/>
<path d="M190.048 203.328C189.664 206.006 190.508 208.674 191.401 211.208C198.493 231.444 208.995 250.317 222.452 267.012C244.028 268.465 265.457 271.614 286.54 276.428C292.472 277.791 298.432 279.307 304.518 279.307C310.603 279.307 316.909 277.762 321.42 273.673C323.935 271.389 325.864 267.962 325.01 264.68C324.127 261.234 320.643 259.218 317.399 257.788C306.353 252.95 294.393 250.55 282.336 250.753C296.493 240.281 310.968 229.041 318.915 213.32C320.134 210.901 321.123 207.781 319.424 205.641C318.243 204.192 316.209 203.808 314.356 203.721C306.313 203.366 298.548 206.793 291.8 211.17C283.151 216.789 275.657 224.012 269.724 232.449C274.462 214.308 277.742 195.817 279.533 177.154C280.052 171.836 280.368 166.183 277.863 161.48C277.438 160.52 276.7 159.732 275.771 159.243C273.736 158.38 271.586 160.136 270.136 161.806C255.739 178.353 249.126 200.381 246.611 222.169C245.396 205.502 242.594 188.988 238.241 172.854C236.638 166.903 234.45 160.52 229.247 157.218C225.629 158.514 224.141 162.747 223.364 166.5C218.824 188.575 223.028 211.707 231.263 232.727C222.337 220.307 213.026 207.637 200.03 199.508C198.533 198.548 196.872 197.675 195.116 197.799C192.409 198.049 190.412 200.669 190.048 203.328Z" fill="#C1ECE6"/>
<path d="M202.026 215.153C202.986 214.452 204.397 214.788 205.415 215.258C206.794 215.965 208.105 216.797 209.331 217.744C214.337 221.479 218.94 225.725 223.066 230.414C227.577 235.319 231.887 240.425 236.657 245.09C234.315 231.335 229.938 217.908 229.046 203.923C228.931 202.157 228.883 200.4 228.892 198.634C228.766 197.093 228.902 195.542 229.295 194.046C229.366 193.769 229.496 193.51 229.675 193.287C229.854 193.063 230.079 192.88 230.334 192.751C230.589 192.621 230.869 192.547 231.155 192.533C231.441 192.52 231.726 192.568 231.992 192.674C233.298 193.25 234.075 194.939 234.776 196.1C238.327 202.08 240.439 208.77 242.455 215.383C244.694 222.87 246.636 230.433 248.281 238.073C250.076 232.612 251.88 227.16 253.742 221.756C254.734 218.839 255.745 215.927 256.775 213.022C257.646 210.355 258.715 207.756 259.972 205.248C260.592 204.017 261.355 202.863 262.247 201.811C262.947 201.024 264.022 200.324 265.078 200.919C265.452 201.202 265.759 201.565 265.975 201.982C266.191 202.399 266.311 202.859 266.326 203.328C266.547 204.816 266.681 206.323 266.787 207.82C267.161 214.013 266.959 220.227 266.182 226.383C265.433 232.833 264.262 239.235 263.034 245.579C269.56 239.398 276.423 233.053 284.803 229.569C285.652 229.138 286.617 228.987 287.557 229.137C287.976 229.244 288.353 229.474 288.638 229.797C288.924 230.121 289.106 230.523 289.16 230.951C289.21 231.958 288.97 232.957 288.469 233.831C287.98 234.839 287.452 235.827 286.876 236.787C284.532 240.61 281.695 244.108 278.439 247.192C275.001 250.46 271.393 253.545 267.631 256.435C276.894 256.924 286.559 257.654 294.9 262.021C295.948 262.564 296.963 263.167 297.943 263.825C298.94 264.427 299.832 265.189 300.582 266.081C300.927 266.468 301.179 266.928 301.318 267.427C301.458 267.926 301.482 268.451 301.389 268.96C301.248 269.449 301.004 269.902 300.672 270.288C300.341 270.674 299.931 270.984 299.469 271.197C297.162 272.267 294.608 272.694 292.078 272.435C289.302 272.22 286.544 271.813 283.824 271.216C277.431 269.958 271.125 268.336 264.819 266.638C264.224 266.484 264.56 265.582 265.155 265.735C270.424 267.127 275.713 268.519 281.031 269.661C283.67 270.227 286.329 270.765 289.007 271.149C291.461 271.595 293.975 271.614 296.436 271.206C297.608 271.043 298.722 270.595 299.68 269.901C299.896 269.728 300.075 269.515 300.208 269.273C300.342 269.031 300.426 268.765 300.456 268.49C300.486 268.216 300.462 267.938 300.385 267.673C300.308 267.408 300.179 267.16 300.006 266.945C299.332 266.062 298.494 265.316 297.54 264.747C296.613 264.12 295.652 263.546 294.66 263.029C290.603 260.953 286.242 259.535 281.741 258.825C276.611 258.023 271.438 257.533 266.249 257.356C266.157 257.344 266.07 257.306 265.999 257.246C265.927 257.187 265.874 257.108 265.846 257.019C265.818 256.931 265.816 256.836 265.839 256.746C265.863 256.656 265.912 256.575 265.98 256.511C272.632 251.261 279.418 245.877 284.352 238.88C285.594 237.134 286.682 235.284 287.605 233.351C287.97 232.574 288.498 231.431 287.961 230.596C287.423 229.761 286.041 230.126 285.244 230.452C281.178 232.21 277.368 234.508 273.918 237.286C269.916 240.396 266.239 243.88 262.554 247.364C262.48 247.421 262.391 247.456 262.298 247.464C262.204 247.472 262.111 247.453 262.028 247.41C261.945 247.366 261.877 247.3 261.83 247.219C261.784 247.138 261.762 247.045 261.767 246.952C263.955 235.434 266.163 223.83 265.961 212.072C265.971 209.132 265.75 206.195 265.299 203.29C265.255 202.815 265.086 202.362 264.809 201.975C264.31 201.408 263.619 201.763 263.158 202.195C262.272 203.135 261.529 204.198 260.951 205.353C259.722 207.714 258.691 210.173 257.87 212.705C256.91 215.489 255.902 218.291 254.933 221.094C252.773 227.41 250.68 233.754 248.588 240.099C248.582 240.162 248.564 240.223 248.535 240.279C248.506 240.335 248.466 240.385 248.417 240.425C248.368 240.466 248.312 240.496 248.252 240.515C248.191 240.534 248.128 240.541 248.065 240.535C248.002 240.53 247.941 240.512 247.885 240.482C247.829 240.453 247.779 240.413 247.738 240.364C247.698 240.316 247.667 240.259 247.648 240.199C247.629 240.139 247.623 240.075 247.628 240.012C246.15 233.012 244.429 226.072 242.464 219.194C240.621 212.744 238.731 206.207 235.745 200.16C235.028 198.677 234.233 197.232 233.365 195.832C232.885 195.054 231.445 192.453 230.342 193.912C230.048 194.39 229.882 194.935 229.862 195.496C229.785 196.35 229.775 197.204 229.766 198.059C229.766 199.805 229.766 201.562 229.871 203.309C230.37 210.121 231.407 216.883 232.972 223.532C234.622 231.134 236.533 238.688 237.771 246.376C237.786 246.479 237.768 246.585 237.719 246.678C237.669 246.77 237.592 246.844 237.497 246.889C237.403 246.935 237.296 246.948 237.193 246.928C237.091 246.908 236.997 246.856 236.926 246.779C228.23 238.438 221.146 228.437 211.721 220.758C210.559 219.798 209.369 218.915 208.141 218.061C207.008 217.199 205.765 216.492 204.445 215.959C203.891 215.72 203.267 215.699 202.698 215.902C202.017 216.257 202.007 217.101 202.017 217.821C202.047 219.55 202.372 221.26 202.977 222.879C204.18 226.047 205.551 229.149 207.085 232.17C208.563 235.242 210.115 238.268 211.74 241.25C215.427 248.036 219.493 254.609 223.92 260.936C224.275 261.435 223.546 262.059 223.191 261.55C219.093 255.703 215.299 249.649 211.826 243.41C210.086 240.281 208.429 237.104 206.854 233.879C205.28 230.683 203.706 227.439 202.42 224.118C201.761 222.533 201.316 220.867 201.095 219.165C201.019 217.792 200.827 216.007 202.026 215.153Z" fill="#53A99E"/>
<path d="M227.078 129.767C225.158 122.262 222.279 114.468 216.414 110.062C210.943 105.993 203.888 105.609 197.218 105.926C197.335 105.668 197.388 105.385 197.371 105.103C197.354 104.82 197.269 104.546 197.122 104.303C196.914 104.007 196.639 103.765 196.318 103.598C195.997 103.431 195.64 103.343 195.279 103.344C194.567 103.362 193.863 103.499 193.196 103.747L190.201 104.707C190.456 104.1 190.778 103.523 191.161 102.988C191.346 102.709 191.463 102.389 191.501 102.055C191.54 101.722 191.499 101.384 191.382 101.069C191.244 100.828 191.039 100.633 190.791 100.507C190.544 100.381 190.266 100.329 189.99 100.359C189.447 100.427 188.928 100.621 188.473 100.925C186.626 102.033 185.015 103.494 183.732 105.225C183.962 106.569 184.202 107.912 184.433 109.256C184.037 111.957 182.848 114.479 181.015 116.503C179.969 117.504 178.718 118.267 177.349 118.739C176.686 118.978 176.006 119.165 175.314 119.296C169.469 120.457 163.355 118.336 158.44 114.746C153.881 111.397 150.224 106.809 146.989 101.971L146.49 101.654L144.139 100.128C143.465 99.6238 142.677 99.294 141.845 99.1684C141.417 99.1207 140.986 99.2241 140.627 99.4608C140.267 99.6975 140.002 100.052 139.877 100.464C139.801 101.01 139.87 101.566 140.079 102.077C140.347 102.95 140.616 103.824 140.894 104.697C138.456 104.002 135.922 103.697 133.388 103.795C133.1 103.766 132.808 103.808 132.539 103.916C132.27 104.025 132.031 104.197 131.843 104.419C131.363 105.196 132.016 106.194 132.63 106.857L134.185 108.555L134.032 108.719L122.715 111.771C119.168 112.658 115.673 113.738 112.243 115.005C109.225 116.075 106.449 117.732 104.075 119.881C98.2297 125.515 96.9723 134.778 96.3964 143.234C95.5853 156.166 95.5853 169.136 96.3964 182.068C97.241 182.269 98.0953 182.461 98.9495 182.634C100.802 183.028 102.664 183.364 104.526 183.68C104.526 183.959 104.449 184.237 104.401 184.515C105.155 186.289 105.518 188.204 105.467 190.13C105.467 192.309 105.563 194.498 105.63 196.686C105.889 204.768 106.436 212.801 107.425 220.825C108.202 227.122 109.201 233.389 110.304 239.628L110.65 239.724C115.919 241.586 121.534 242.133 127.034 242.796C130.413 243.208 133.801 243.592 137.189 244.015C140.578 244.437 143.908 244.974 147.296 245.56L149.053 245.915C155.609 247.835 162.02 250.369 168.49 252.634C177.061 255.676 185.843 258.393 194.856 258.844C203.869 259.295 213.208 257.375 220.628 251.808C221.112 251.498 221.501 251.059 221.751 250.541C221.782 250.45 221.808 250.357 221.828 250.263C221.877 249.863 221.798 249.457 221.603 249.104C221.409 248.751 221.108 248.468 220.743 248.295C220.456 248.154 220.148 248.056 219.831 248.007C219.929 247.844 220.016 247.674 220.09 247.499C220.361 246.891 220.53 246.242 220.59 245.579C220.765 245.077 220.837 244.545 220.801 244.015C220.739 243.471 220.569 242.946 220.302 242.469C219.805 240.841 219.225 239.239 218.564 237.67C218.478 237.449 218.401 237.229 218.324 236.998C217.631 234.933 217.108 232.814 216.76 230.664C216.14 226.428 215.775 222.158 215.666 217.879C215.445 213.243 215.214 208.597 215.003 203.961C214.792 199.325 214.552 194.69 214.331 190.044C214.226 187.702 214.111 185.36 214.005 183.018C213.909 181.098 213.851 179.102 213.564 177.182C213.564 174.034 213.506 170.886 213.458 167.738H214.207C219.052 167 223.763 165.558 228.191 163.457C229.41 162.891 230.601 162.267 231.772 161.605C232.023 161.471 232.251 161.296 232.443 161.086C231.071 150.576 229.67 140.018 227.078 129.767Z" fill="#53A99E"/>
<path d="M213.602 180.321L230.879 183.93C230.874 184.016 230.874 184.103 230.879 184.189C230.879 184.439 230.937 184.688 230.975 184.928C228.806 190.348 226.64 195.768 224.477 201.188C223.747 203.011 223.028 204.835 222.288 206.658C222.172 206.588 222.05 206.527 221.924 206.476C220.911 206.208 219.842 206.248 218.852 206.591C215.029 207.563 211.292 208.847 207.68 210.431C210.203 206.004 211.873 201.143 212.604 196.1C212.743 195.433 212.743 194.743 212.604 194.075C212.535 193.757 212.371 193.467 212.135 193.242C211.899 193.018 211.601 192.87 211.279 192.818C210.879 192.841 210.497 192.989 210.185 193.24C208.96 194.198 207.888 195.337 207.008 196.619C202.775 202.081 198.169 207.244 193.225 212.072C193.823 210.921 194.342 209.732 194.78 208.511C198.542 198.586 202.308 188.668 206.077 178.757L213.602 180.321Z" fill="#4D569E"/>
<path d="M230.984 184.928C232.184 194.152 233.355 203.424 233.221 212.763H233.125C232.953 210.794 232.152 208.933 230.84 207.455C229.034 205.114 226.923 203.026 224.563 201.245H224.486C226.649 195.793 228.815 190.354 230.984 184.928Z" fill="#99592E"/>
<path d="M233.125 212.734C233.124 213.153 233.066 213.569 232.952 213.972C232.348 216.141 230.217 217.399 229.267 219.424C228.566 220.921 228.575 222.678 228.038 224.223C227.629 225.448 226.861 226.521 225.834 227.304C224.807 228.086 223.568 228.541 222.279 228.61L221.943 228.725C221.852 228.533 221.75 228.347 221.636 228.168C221.393 227.869 221.222 227.517 221.137 227.141C221.141 226.851 221.207 226.565 221.329 226.302C221.452 226.039 221.628 225.805 221.847 225.615C222.59 224.892 223.235 224.076 223.767 223.187C224.03 222.729 224.191 222.221 224.239 221.696C224.287 221.171 224.221 220.641 224.045 220.144C223.623 219.184 222.634 218.522 222.404 217.476C222.314 216.461 222.571 215.446 223.133 214.596C223.845 213.24 224.217 211.732 224.218 210.2C224.208 209.505 224.027 208.824 223.693 208.214C223.358 207.605 222.879 207.088 222.298 206.706C223.037 204.883 223.757 203.059 224.487 201.236H224.563C226.923 203.016 229.035 205.105 230.841 207.446C232.148 208.919 232.949 210.772 233.125 212.734Z" fill="#99592E"/>
<path d="M228.191 163.476C229.075 170.291 229.961 177.109 230.85 183.93L213.573 180.321C213.573 176.136 213.496 171.961 213.429 167.776H214.178C219.034 167.035 223.755 165.586 228.191 163.476Z" fill="#99592E"/>
<path d="M193.196 212.033C198.141 207.206 202.746 202.043 206.979 196.58C207.86 195.299 208.931 194.159 210.156 193.202C210.468 192.95 210.851 192.803 211.25 192.78C211.572 192.832 211.87 192.98 212.106 193.204C212.343 193.428 212.506 193.719 212.575 194.037C212.714 194.705 212.714 195.394 212.575 196.062C211.844 201.105 210.174 205.965 207.651 210.392C211.264 208.808 215 207.524 218.824 206.553C219.813 206.21 220.883 206.169 221.895 206.438C222.021 206.489 222.143 206.55 222.26 206.62C222.841 207.001 223.32 207.519 223.654 208.128C223.989 208.737 224.169 209.419 224.179 210.114C224.177 211.675 223.788 213.212 223.047 214.587C222.485 215.436 222.228 216.451 222.317 217.466C222.548 218.512 223.536 219.155 223.959 220.134C224.134 220.632 224.201 221.161 224.152 221.686C224.104 222.211 223.943 222.72 223.68 223.177C223.149 224.066 222.503 224.883 221.761 225.605C221.542 225.795 221.365 226.03 221.243 226.293C221.12 226.556 221.055 226.841 221.05 227.131C221.135 227.508 221.306 227.859 221.549 228.158C221.663 228.337 221.766 228.523 221.857 228.715C222.461 230.04 222.509 231.777 221.434 232.631C221.211 232.761 221.028 232.95 220.906 233.178C220.762 233.562 221.06 233.956 221.281 234.311C221.653 235.003 221.832 235.783 221.799 236.569C221.765 237.354 221.52 238.116 221.089 238.774C220.503 239.68 219.697 240.423 218.747 240.934C218.378 241.148 217.997 241.341 217.605 241.509C213.324 243.295 208.524 242.632 204.004 241.749C198.405 240.65 192.868 239.253 187.418 237.565C172.78 241.634 157.663 243.266 142.536 243.899C138.946 244.053 135.347 244.149 131.757 244.207C126.958 244.283 121.938 244.264 117.484 242.287C116.436 241.823 115.437 241.257 114.499 240.598C109.921 237.411 106.58 232.199 104.603 226.632C102.568 220.873 101.781 214.731 101.205 208.588C101.1 207.561 101.013 206.543 100.917 205.507C100.239 197.828 99.5544 190.175 98.8633 182.548C111.291 185.147 124.001 186.137 136.681 185.494H136.863C137.094 194.331 137.413 203.171 137.823 212.014V212.369L179.749 215.066C183.071 215.365 186.41 215.43 189.741 215.258C190.931 214.215 192.083 213.14 193.196 212.033Z" fill="#B56F40"/>
<path d="M226.339 186.358C220.364 184.471 214.272 182.974 208.102 181.876C208.046 181.867 207.988 181.871 207.934 181.888C207.879 181.904 207.829 181.933 207.788 181.972C207.746 182.011 207.714 182.059 207.694 182.112C207.673 182.165 207.665 182.222 207.67 182.279C205.111 188.825 202.33 195.278 199.329 201.639C198.466 203.481 197.582 205.305 196.68 207.129C196.648 207.219 196.65 207.317 196.687 207.405C196.723 207.493 196.791 207.565 196.878 207.606C196.964 207.646 197.062 207.653 197.154 207.626C197.245 207.598 197.322 207.537 197.371 207.455C200.513 201.114 203.437 194.667 206.144 188.115C206.88 186.31 207.606 184.506 208.323 182.701C214.372 183.785 220.345 185.257 226.205 187.107C226.665 187.251 226.8 186.502 226.339 186.358Z" fill="#252626"/>
<path d="M140.722 120.332C140.681 120.035 140.539 119.76 140.319 119.555L136.297 115.303C136.062 115.114 135.763 115.021 135.462 115.044C135.162 115.076 134.884 115.22 134.685 115.447C134.588 115.562 134.515 115.695 134.47 115.838C134.426 115.982 134.411 116.133 134.425 116.282C134.466 116.58 134.609 116.854 134.829 117.059L138.841 121.311C139.076 121.501 139.375 121.593 139.676 121.571C139.826 121.559 139.971 121.517 140.105 121.448C140.239 121.379 140.357 121.284 140.453 121.169C140.55 121.053 140.623 120.92 140.667 120.777C140.711 120.633 140.727 120.482 140.712 120.332H140.722Z" fill="#C1ECE6"/>
<path d="M126.324 119.661C126.05 119.534 125.737 119.519 125.452 119.62C125.167 119.72 124.932 119.928 124.798 120.198C124.232 121.619 123.675 123.078 123.109 124.44C123.046 124.577 123.01 124.724 123.004 124.874C122.998 125.024 123.021 125.173 123.073 125.314C123.125 125.455 123.204 125.584 123.305 125.694C123.407 125.805 123.529 125.894 123.665 125.957C123.801 126.02 123.949 126.056 124.099 126.062C124.248 126.068 124.398 126.044 124.539 125.993C124.68 125.941 124.809 125.862 124.919 125.76C125.03 125.659 125.119 125.536 125.182 125.4C125.739 123.989 126.305 122.578 126.862 121.158C126.979 120.887 126.989 120.581 126.889 120.303C126.79 120.025 126.587 119.795 126.324 119.661Z" fill="#C1ECE6"/>
<path d="M115.689 133.578L113.145 129.969C113.058 129.847 112.948 129.743 112.821 129.663C112.694 129.583 112.552 129.53 112.404 129.505C112.256 129.48 112.105 129.484 111.959 129.518C111.813 129.551 111.674 129.613 111.552 129.7C111.43 129.787 111.326 129.897 111.246 130.025C111.167 130.152 111.113 130.293 111.088 130.441C111.063 130.589 111.067 130.741 111.101 130.887C111.134 131.033 111.196 131.171 111.283 131.294L113.827 134.893C113.909 135.026 114.017 135.141 114.145 135.231C114.272 135.321 114.417 135.383 114.57 135.415C114.723 135.446 114.881 135.446 115.034 135.414C115.187 135.382 115.332 135.319 115.46 135.229C115.587 135.139 115.695 135.024 115.776 134.89C115.858 134.757 115.911 134.608 115.932 134.453C115.954 134.298 115.943 134.141 115.901 133.99C115.859 133.84 115.787 133.699 115.689 133.578Z" fill="#C1ECE6"/>
<path d="M140.415 132.551C140.299 132.275 140.084 132.052 139.812 131.928C139.54 131.803 139.231 131.786 138.946 131.879L133.648 133.156C133.364 133.261 133.134 133.475 133.008 133.751C132.882 134.026 132.87 134.34 132.976 134.624C133.088 134.903 133.302 135.129 133.576 135.254C133.849 135.379 134.16 135.394 134.445 135.296L139.743 134.029C140.027 133.921 140.258 133.705 140.384 133.428C140.509 133.152 140.521 132.836 140.415 132.551Z" fill="#C1ECE6"/>
<path d="M133.533 149.732C133.149 148.474 132.774 147.207 132.4 145.892C132.292 145.608 132.076 145.378 131.799 145.252C131.522 145.126 131.207 145.115 130.922 145.22C130.644 145.334 130.42 145.549 130.296 145.822C130.171 146.095 130.154 146.405 130.25 146.689C130.634 147.956 131.008 149.223 131.383 150.48C131.49 150.765 131.706 150.995 131.983 151.121C132.26 151.247 132.576 151.258 132.861 151.152C133.129 151.041 133.346 150.834 133.47 150.571C133.594 150.309 133.617 150.01 133.533 149.732Z" fill="#C1ECE6"/>
<path d="M122.043 151.085L120.987 145.998C120.949 145.699 120.806 145.424 120.584 145.22C120.349 145.031 120.05 144.939 119.749 144.961C119.449 144.991 119.172 145.137 118.978 145.368C118.784 145.6 118.689 145.898 118.713 146.2L119.768 151.287C119.807 151.585 119.95 151.86 120.172 152.064C120.406 152.256 120.705 152.349 121.007 152.323C121.308 152.296 121.587 152.151 121.781 151.919C121.976 151.687 122.07 151.387 122.043 151.085Z" fill="#C1ECE6"/>
<path d="M109.152 158.476C109.109 158.178 108.967 157.905 108.749 157.698L105.793 154.723C105.56 154.528 105.261 154.432 104.958 154.454C104.658 154.486 104.38 154.63 104.181 154.857C103.986 155.09 103.89 155.389 103.912 155.692C103.954 155.991 104.1 156.267 104.325 156.47C105.304 157.468 106.289 158.46 107.281 159.445C107.394 159.542 107.525 159.615 107.667 159.662C107.808 159.708 107.958 159.725 108.106 159.714C108.407 159.683 108.685 159.539 108.884 159.311C109.078 159.078 109.174 158.778 109.152 158.476Z" fill="#C1ECE6"/>
<path d="M119.73 169.619C119.558 169.372 119.296 169.203 119 169.149C118.699 169.116 118.396 169.184 118.137 169.341L113.99 171.625C113.868 171.708 113.764 171.815 113.683 171.938C113.603 172.062 113.547 172.2 113.52 172.345C113.471 172.65 113.539 172.962 113.712 173.218C113.886 173.461 114.148 173.626 114.441 173.679C114.743 173.718 115.049 173.651 115.305 173.487L119.461 171.212C119.701 171.035 119.865 170.775 119.922 170.483C119.949 170.333 119.946 170.18 119.913 170.032C119.88 169.883 119.818 169.743 119.73 169.619Z" fill="#C1ECE6"/>
<path d="M136.71 165.252C135.884 163.691 135.056 162.126 134.224 160.558C134.113 160.285 133.909 160.061 133.648 159.925C133.512 159.86 133.364 159.823 133.214 159.815C133.063 159.808 132.913 159.83 132.771 159.881C132.629 159.932 132.499 160.01 132.387 160.112C132.276 160.213 132.186 160.336 132.122 160.472C132.058 160.61 132.025 160.761 132.025 160.914C132.025 161.066 132.058 161.217 132.122 161.355C132.947 162.916 133.776 164.481 134.608 166.049C134.718 166.321 134.922 166.546 135.184 166.682C135.325 166.741 135.477 166.772 135.63 166.772C135.783 166.772 135.935 166.741 136.076 166.682C136.352 166.577 136.579 166.371 136.71 166.106C136.766 165.971 136.795 165.826 136.795 165.679C136.795 165.532 136.766 165.387 136.71 165.252Z" fill="#C1ECE6"/>
<path d="M145.79 176.165C145.758 175.865 145.611 175.59 145.38 175.396C145.149 175.203 144.852 175.107 144.551 175.128L138.629 175.858C138.329 175.887 138.051 176.033 137.858 176.265C137.664 176.496 137.568 176.795 137.593 177.096C137.624 177.396 137.771 177.671 138.002 177.865C138.233 178.058 138.53 178.154 138.831 178.133L144.753 177.403C145.053 177.372 145.328 177.225 145.522 176.994C145.715 176.763 145.811 176.466 145.79 176.165Z" fill="#C1ECE6"/>
<path d="M153.574 154.608C153.005 153.193 152.441 151.779 151.885 150.365C151.832 150.225 151.752 150.096 151.649 149.986C151.546 149.877 151.423 149.788 151.286 149.726C151.149 149.665 151.002 149.63 150.852 149.625C150.702 149.62 150.552 149.645 150.411 149.698C150.271 149.751 150.142 149.831 150.033 149.934C149.923 150.036 149.835 150.16 149.773 150.297C149.711 150.433 149.676 150.581 149.672 150.731C149.667 150.881 149.691 151.031 149.744 151.171L151.424 155.404C151.476 155.545 151.556 155.675 151.658 155.785C151.761 155.896 151.884 155.985 152.021 156.048C152.157 156.111 152.305 156.146 152.456 156.151C152.606 156.157 152.756 156.133 152.897 156.081C153.039 156.029 153.168 155.949 153.278 155.847C153.389 155.744 153.478 155.621 153.541 155.484C153.604 155.348 153.639 155.2 153.645 155.049C153.65 154.899 153.626 154.749 153.574 154.608Z" fill="#C1ECE6"/>
<path d="M157.173 137.254C157.06 136.976 156.845 136.753 156.572 136.628C156.299 136.503 155.989 136.487 155.705 136.582L150.407 138.079C150.122 138.187 149.892 138.403 149.766 138.68C149.64 138.957 149.629 139.272 149.735 139.558C149.848 139.835 150.063 140.059 150.336 140.184C150.609 140.309 150.919 140.325 151.203 140.229L156.501 138.723C156.784 138.615 157.012 138.4 157.138 138.126C157.264 137.851 157.276 137.538 157.173 137.254Z" fill="#C1ECE6"/>
<path d="M160.609 166.173C160.5 165.893 160.285 165.666 160.011 165.54C159.737 165.415 159.425 165.401 159.141 165.501L153.439 168.103C153.16 168.214 152.935 168.429 152.81 168.703C152.685 168.976 152.67 169.287 152.767 169.571C152.875 169.853 153.09 170.082 153.364 170.208C153.639 170.333 153.952 170.346 154.236 170.243L159.937 167.651C160.217 167.538 160.443 167.321 160.568 167.046C160.693 166.771 160.708 166.459 160.609 166.173Z" fill="#C1ECE6"/>
<path d="M172.3 180.82L169.968 176.607C169.791 176.367 169.531 176.203 169.238 176.146C169.089 176.117 168.935 176.118 168.786 176.151C168.638 176.185 168.498 176.248 168.375 176.338C168.13 176.507 167.961 176.766 167.904 177.058C167.871 177.362 167.939 177.669 168.096 177.931L170.429 182.164C170.602 182.409 170.863 182.578 171.158 182.634C171.46 182.684 171.769 182.615 172.022 182.442C172.267 182.269 172.436 182.008 172.492 181.713C172.534 181.402 172.466 181.086 172.3 180.82Z" fill="#C1ECE6"/>
<path d="M158.824 185.005C158.674 184.98 158.52 184.986 158.371 185.02C158.222 185.055 158.082 185.119 157.958 185.208C157.834 185.297 157.729 185.41 157.649 185.54C157.568 185.67 157.515 185.814 157.49 185.965L156.924 192.559C156.879 192.862 156.954 193.171 157.133 193.42C157.313 193.669 157.582 193.839 157.884 193.893C158.187 193.94 158.498 193.866 158.747 193.686C158.997 193.507 159.166 193.236 159.218 192.933C159.397 190.732 159.586 188.534 159.784 186.339C159.829 186.036 159.754 185.727 159.574 185.478C159.395 185.229 159.126 185.059 158.824 185.005Z" fill="#C1ECE6"/>
<path d="M148.775 204.489L147.921 199.191C147.889 198.891 147.742 198.616 147.511 198.422C147.28 198.229 146.983 198.133 146.682 198.154C146.382 198.184 146.105 198.33 145.911 198.561C145.717 198.793 145.622 199.092 145.646 199.393L146.49 204.691C146.517 204.994 146.663 205.274 146.896 205.469C147.129 205.664 147.43 205.759 147.733 205.732C148.036 205.706 148.316 205.56 148.512 205.326C148.707 205.093 148.802 204.792 148.775 204.489Z" fill="#C1ECE6"/>
<path d="M166.762 205.756C166.73 205.457 166.584 205.181 166.353 204.988C166.122 204.794 165.824 204.698 165.524 204.72L159.592 205.142C159.439 205.149 159.288 205.187 159.15 205.254C159.012 205.321 158.889 205.415 158.787 205.53C158.686 205.646 158.609 205.78 158.562 205.926C158.514 206.072 158.496 206.226 158.508 206.379C158.521 206.532 158.565 206.681 158.637 206.816C158.708 206.952 158.807 207.072 158.926 207.169C159.045 207.266 159.182 207.338 159.33 207.38C159.477 207.423 159.632 207.435 159.784 207.417L165.725 206.994C166.026 206.965 166.303 206.819 166.497 206.587C166.691 206.356 166.786 206.057 166.762 205.756Z" fill="#C1ECE6"/>
<path d="M179.211 193.624C179.103 193.342 178.889 193.113 178.614 192.988C178.339 192.862 178.026 192.849 177.742 192.952L172.866 195.496C172.595 195.613 172.371 195.819 172.233 196.081C172.118 196.364 172.118 196.681 172.233 196.964C172.339 197.248 172.552 197.479 172.827 197.607C173.102 197.734 173.416 197.748 173.701 197.646L178.577 195.093C178.853 194.981 179.078 194.773 179.211 194.507C179.271 194.368 179.301 194.217 179.301 194.066C179.301 193.914 179.271 193.764 179.211 193.624Z" fill="#C1ECE6"/>
<path d="M190.498 189.746L188.032 185.043C187.917 184.77 187.71 184.545 187.446 184.41C187.241 184.311 187.01 184.276 186.785 184.309C186.559 184.342 186.349 184.442 186.181 184.596C186.012 184.75 185.894 184.951 185.841 185.172C185.787 185.394 185.802 185.627 185.882 185.84C186.707 187.401 187.529 188.969 188.348 190.543C188.463 190.817 188.67 191.041 188.934 191.177C189.074 191.236 189.224 191.266 189.375 191.266C189.527 191.266 189.677 191.236 189.817 191.177C190.092 191.071 190.316 190.863 190.443 190.597C190.569 190.331 190.589 190.027 190.498 189.746Z" fill="#C1ECE6"/>
<path d="M188.761 205.315C188.647 205.035 188.431 204.809 188.156 204.684C187.881 204.559 187.569 204.545 187.283 204.643L182.868 206.227C182.586 206.334 182.357 206.549 182.231 206.823C182.106 207.098 182.093 207.411 182.196 207.695C182.306 207.976 182.52 208.203 182.794 208.328C183.068 208.453 183.38 208.467 183.664 208.367L188.08 206.783C188.362 206.675 188.591 206.462 188.718 206.187C188.846 205.913 188.861 205.6 188.761 205.315Z" fill="#C1ECE6"/>
<path d="M199.732 178.689L196.133 178.257C195.828 178.208 195.516 178.277 195.259 178.449C195.076 178.58 194.936 178.761 194.856 178.971C194.775 179.181 194.759 179.41 194.808 179.629C194.857 179.849 194.97 180.048 195.132 180.204C195.294 180.359 195.499 180.464 195.72 180.503L199.319 180.935C199.621 180.984 199.93 180.915 200.183 180.743C200.428 180.574 200.597 180.316 200.654 180.024C200.702 179.725 200.633 179.42 200.461 179.171C200.289 178.923 200.028 178.75 199.732 178.689Z" fill="#C1ECE6"/>
<path d="M187.37 153.945C187.138 153.754 186.84 153.661 186.541 153.686C186.241 153.711 185.964 153.853 185.767 154.08L182.148 158.735C181.981 158.97 181.909 159.26 181.945 159.547C181.982 159.834 182.125 160.096 182.346 160.282C182.567 160.468 182.85 160.564 183.139 160.551C183.428 160.539 183.701 160.418 183.905 160.213L187.514 155.558C187.704 155.323 187.796 155.023 187.769 154.722C187.742 154.421 187.599 154.142 187.37 153.945Z" fill="#C1ECE6"/>
<path d="M176.869 149.645C176.719 149.621 176.564 149.626 176.416 149.661C176.267 149.696 176.127 149.759 176.003 149.849C175.879 149.938 175.774 150.05 175.694 150.18C175.613 150.31 175.559 150.454 175.535 150.605L174.901 154.636C174.855 154.93 174.926 155.231 175.098 155.474C175.27 155.717 175.531 155.883 175.823 155.937C176.116 155.99 176.419 155.928 176.666 155.762C176.913 155.596 177.086 155.34 177.147 155.049C177.359 153.705 177.579 152.362 177.791 151.018C177.823 150.867 177.824 150.711 177.795 150.56C177.765 150.409 177.706 150.265 177.62 150.137C177.534 150.009 177.424 149.899 177.294 149.815C177.165 149.73 177.021 149.673 176.869 149.645Z" fill="#C1ECE6"/>
<path d="M181.975 129.441C181.87 129.157 181.655 128.927 181.38 128.801C181.105 128.675 180.791 128.664 180.507 128.769L174.191 132.013C173.906 132.119 173.674 132.334 173.547 132.61C173.421 132.886 173.409 133.202 173.514 133.487C173.62 133.772 173.835 134.003 174.111 134.13C174.387 134.257 174.703 134.269 174.988 134.163L181.303 130.91C181.582 130.798 181.808 130.583 181.933 130.31C182.058 130.036 182.073 129.725 181.975 129.441Z" fill="#C1ECE6"/>
<path d="M172.483 126.13C172.449 125.831 172.302 125.557 172.071 125.364C171.841 125.171 171.545 125.074 171.245 125.093L167.857 125.151C167.554 125.18 167.275 125.327 167.081 125.561C166.887 125.795 166.793 126.096 166.82 126.398C166.854 126.697 167.001 126.971 167.232 127.164C167.462 127.357 167.758 127.454 168.058 127.435L171.446 127.368C171.747 127.339 172.024 127.192 172.218 126.961C172.412 126.729 172.507 126.431 172.483 126.13Z" fill="#C1ECE6"/>
<path d="M188.128 115.524C187.977 115.499 187.823 115.504 187.675 115.539C187.526 115.574 187.386 115.638 187.262 115.727C187.138 115.816 187.033 115.929 186.953 116.059C186.872 116.189 186.818 116.333 186.794 116.484L186.16 121.359C186.129 121.509 186.128 121.663 186.157 121.812C186.186 121.962 186.244 122.105 186.329 122.231C186.414 122.358 186.524 122.466 186.651 122.55C186.779 122.634 186.921 122.691 187.071 122.719C187.222 122.746 187.376 122.743 187.524 122.711C187.673 122.678 187.814 122.615 187.939 122.527C188.063 122.439 188.169 122.327 188.249 122.197C188.329 122.067 188.383 121.923 188.406 121.772L189.04 116.896C189.072 116.746 189.074 116.591 189.045 116.44C189.016 116.289 188.958 116.146 188.873 116.018C188.788 115.89 188.678 115.781 188.55 115.696C188.422 115.611 188.279 115.552 188.128 115.524Z" fill="#C1ECE6"/>
<path d="M206.115 114.919C205.881 114.727 205.582 114.634 205.28 114.66C205.13 114.67 204.983 114.712 204.85 114.781C204.716 114.85 204.598 114.946 204.503 115.063C204.322 115.303 204.227 115.597 204.234 115.898C204.186 117.453 204.128 119.008 204.071 120.563C204.083 120.711 204.125 120.856 204.194 120.988C204.263 121.12 204.358 121.236 204.474 121.331C204.589 121.428 204.721 121.502 204.864 121.548C205.007 121.593 205.158 121.611 205.308 121.598C205.458 121.586 205.604 121.544 205.737 121.475C205.871 121.406 205.99 121.311 206.086 121.196C206.262 120.954 206.353 120.66 206.346 120.361L206.518 115.696C206.49 115.395 206.345 115.116 206.115 114.919Z" fill="#C1ECE6"/>
<path d="M217.624 119.728C217.612 119.577 217.569 119.43 217.498 119.296C217.427 119.162 217.33 119.045 217.211 118.95L214.044 116.829C213.806 116.644 213.509 116.552 213.209 116.57C213.059 116.583 212.913 116.625 212.78 116.694C212.646 116.763 212.528 116.858 212.431 116.973C212.241 117.208 212.148 117.507 212.172 117.808C212.184 117.958 212.225 118.104 212.295 118.238C212.364 118.371 212.459 118.49 212.575 118.586L215.752 120.697C215.99 120.883 216.286 120.979 216.587 120.966C216.888 120.933 217.165 120.79 217.365 120.563C217.556 120.328 217.649 120.029 217.624 119.728Z" fill="#C1ECE6"/>
<path d="M221.012 127.656C220.841 127.415 220.583 127.25 220.292 127.195C220.142 127.17 219.988 127.176 219.839 127.211C219.69 127.245 219.55 127.309 219.426 127.398C219.302 127.488 219.197 127.6 219.117 127.73C219.036 127.86 218.982 128.004 218.958 128.155C218.814 129.278 218.68 130.411 218.536 131.543C218.486 131.845 218.555 132.154 218.728 132.407C218.897 132.652 219.155 132.82 219.448 132.877C219.751 132.925 220.062 132.85 220.311 132.671C220.561 132.491 220.73 132.221 220.782 131.917L221.204 128.529C221.253 128.224 221.184 127.912 221.012 127.656Z" fill="#C1ECE6"/>
<path d="M207.21 129.057C207.06 129.033 206.906 129.038 206.758 129.073C206.61 129.108 206.47 129.172 206.347 129.261C206.224 129.35 206.12 129.463 206.041 129.593C205.961 129.723 205.908 129.867 205.885 130.017L205.165 134.058C205.137 134.345 205.217 134.631 205.39 134.862C205.563 135.092 205.816 135.249 206.099 135.302C206.383 135.355 206.675 135.3 206.92 135.148C207.165 134.996 207.343 134.758 207.421 134.48C207.651 133.127 207.891 131.773 208.131 130.43C208.162 130.279 208.162 130.124 208.132 129.973C208.102 129.822 208.043 129.679 207.957 129.551C207.872 129.423 207.761 129.314 207.633 129.229C207.505 129.144 207.361 129.086 207.21 129.057Z" fill="#C1ECE6"/>
<path d="M199.521 144.222L198.034 139.778C197.926 139.496 197.712 139.268 197.437 139.142C197.162 139.016 196.849 139.003 196.565 139.106C196.283 139.214 196.054 139.428 195.926 139.702C195.799 139.977 195.784 140.29 195.884 140.575L197.381 145.019C197.489 145.301 197.703 145.53 197.978 145.655C198.252 145.781 198.565 145.794 198.849 145.691C199.13 145.581 199.357 145.366 199.482 145.092C199.608 144.818 199.622 144.506 199.521 144.222Z" fill="#C1ECE6"/>
<path d="M212.748 147.697C212.718 147.395 212.573 147.117 212.341 146.922C212.11 146.727 211.811 146.629 211.509 146.651L206.432 147.342C206.131 147.376 205.854 147.524 205.659 147.756C205.464 147.989 205.367 148.287 205.386 148.589C205.417 148.889 205.564 149.165 205.795 149.358C206.026 149.552 206.323 149.648 206.624 149.626L211.701 148.935C212.001 148.901 212.276 148.754 212.471 148.524C212.665 148.294 212.764 147.998 212.748 147.697Z" fill="#C1ECE6"/>
<path d="M225.206 147.179C224.784 145.902 224.362 144.635 223.949 143.339C223.843 143.054 223.629 142.823 223.352 142.696C223.076 142.569 222.761 142.557 222.476 142.663C222.191 142.768 221.959 142.983 221.832 143.259C221.705 143.535 221.693 143.851 221.799 144.136L223.066 147.975C223.174 148.257 223.388 148.486 223.663 148.612C223.937 148.737 224.251 148.75 224.534 148.647C224.814 148.535 225.039 148.321 225.164 148.047C225.289 147.774 225.304 147.463 225.206 147.179Z" fill="#C1ECE6"/>
<path d="M222.02 153.062C221.848 152.821 221.59 152.656 221.3 152.602C220.995 152.548 220.681 152.617 220.426 152.793C220.184 152.968 220.019 153.229 219.966 153.523C219.898 154.723 219.841 155.922 219.774 157.122C219.73 157.424 219.798 157.731 219.966 157.986C220.135 158.231 220.393 158.399 220.685 158.456C220.991 158.509 221.304 158.441 221.559 158.264C221.682 158.181 221.786 158.074 221.866 157.948C221.945 157.822 221.997 157.682 222.02 157.535C222.087 156.335 222.154 155.135 222.212 153.936C222.261 153.631 222.192 153.319 222.02 153.062Z" fill="#C1ECE6"/>
<path d="M205.875 161.096L199.943 160.031C199.794 159.999 199.64 159.998 199.49 160.027C199.341 160.056 199.198 160.114 199.072 160.199C198.945 160.284 198.837 160.394 198.753 160.521C198.669 160.649 198.612 160.792 198.584 160.942C198.557 161.092 198.559 161.246 198.592 161.395C198.625 161.544 198.688 161.684 198.776 161.809C198.864 161.933 198.976 162.039 199.106 162.119C199.236 162.199 199.38 162.253 199.531 162.277L205.463 163.342C205.612 163.373 205.766 163.375 205.916 163.346C206.065 163.317 206.208 163.258 206.334 163.173C206.461 163.088 206.569 162.979 206.653 162.851C206.737 162.724 206.794 162.581 206.822 162.431C206.849 162.281 206.847 162.127 206.814 161.978C206.781 161.829 206.718 161.688 206.63 161.564C206.542 161.439 206.43 161.334 206.3 161.253C206.17 161.173 206.026 161.12 205.875 161.096Z" fill="#C1ECE6"/>
<path d="M184.049 245.416L178.971 244.782C178.684 244.754 178.398 244.835 178.167 245.008C177.937 245.181 177.78 245.434 177.727 245.717C177.674 246 177.729 246.293 177.881 246.537C178.033 246.782 178.271 246.96 178.549 247.038L183.636 247.671C183.784 247.699 183.936 247.696 184.083 247.665C184.23 247.633 184.37 247.573 184.494 247.487C184.618 247.402 184.724 247.292 184.805 247.166C184.887 247.039 184.943 246.898 184.97 246.75C184.997 246.602 184.995 246.45 184.963 246.303C184.932 246.156 184.871 246.016 184.786 245.892C184.7 245.768 184.591 245.662 184.465 245.581C184.338 245.499 184.197 245.443 184.049 245.416Z" fill="#C1ECE6"/>
<path d="M196.613 246.98L195.576 243.583C195.524 243.442 195.445 243.312 195.342 243.202C195.24 243.091 195.117 243.002 194.98 242.939C194.843 242.876 194.695 242.841 194.545 242.835C194.394 242.83 194.244 242.854 194.103 242.906C193.962 242.958 193.832 243.038 193.722 243.14C193.612 243.243 193.522 243.366 193.46 243.503C193.397 243.639 193.361 243.787 193.356 243.938C193.35 244.088 193.374 244.238 193.426 244.379L194.473 247.777C194.578 248.061 194.792 248.291 195.068 248.417C195.343 248.543 195.657 248.555 195.941 248.449C196.223 248.341 196.452 248.127 196.578 247.852C196.703 247.577 196.716 247.264 196.613 246.98Z" fill="#C1ECE6"/>
<path d="M202.372 253.315C202.338 253.017 202.191 252.742 201.96 252.549C201.73 252.356 201.434 252.259 201.134 252.279L194.357 252.787C194.054 252.814 193.775 252.96 193.579 253.193C193.384 253.426 193.289 253.727 193.316 254.03C193.343 254.333 193.489 254.613 193.722 254.808C193.955 255.004 194.256 255.098 194.559 255.072L201.326 254.553C201.628 254.526 201.908 254.381 202.104 254.15C202.299 253.918 202.396 253.618 202.372 253.315Z" fill="#C1ECE6"/>
<path d="M212.124 249.476L210.022 245.637C209.85 245.396 209.592 245.231 209.302 245.176C208.997 245.127 208.685 245.196 208.428 245.368C208.186 245.542 208.021 245.804 207.968 246.097C207.93 246.399 207.998 246.704 208.16 246.961L210.262 250.8C210.435 251.044 210.697 251.209 210.991 251.261C211.293 251.31 211.602 251.241 211.855 251.069C212.097 250.895 212.262 250.633 212.316 250.34C212.359 250.038 212.291 249.731 212.124 249.476Z" fill="#C1ECE6"/>
<path d="M276.433 274.038C274.302 281.082 270.442 287.48 265.203 292.649C262.447 295.259 259.423 297.569 256.18 299.54C245.987 305.827 234.526 309.455 222.922 311.259C216.404 312.241 209.826 312.764 203.236 312.824C198.552 313.592 179.393 311.586 174.949 309.388C170.432 307.012 166.283 303.992 162.635 300.423C154.956 293.263 147.93 285.296 140.654 277.647C136.988 273.807 133.264 269.968 129.347 266.455C125.555 262.882 121.457 259.648 117.1 256.79C112.766 253.989 107.954 252.011 102.904 250.954C97.9009 249.961 92.7513 249.961 87.7482 250.954C87.7027 250.962 87.6559 250.961 87.6112 250.949C87.5664 250.938 87.5247 250.916 87.489 250.887C86.5699 251.174 85.6691 251.517 84.7919 251.914C78.5722 254.736 73.3794 261.042 72.458 268.096C73.2343 261.232 75.4659 254.612 79.0041 248.679C82.1269 243.531 86.5669 239.31 91.8659 236.451C93.2146 235.583 94.63 234.822 96.0988 234.176C101.224 231.94 106.83 231.748 112.301 232.679C118.012 233.81 123.604 235.478 129.002 237.661C131.753 238.71 134.47 239.852 137.151 241.087C139.877 242.345 142.593 243.669 145.386 244.782C145.559 244.859 145.741 244.917 145.924 244.984C153.602 247.009 161.041 249.965 168.557 252.663C177.128 255.705 185.911 258.421 194.923 258.873C203.936 259.324 213.275 257.404 220.695 251.837C221.18 251.524 221.571 251.087 221.828 250.57C232.894 241.26 247.81 236.278 261.181 240.78C267.353 242.853 273.16 247.115 276.029 253.402C278.899 259.688 278.458 267.329 276.433 274.038Z" fill="#28384C"/>
<path d="M176.159 276.341C179.211 278.502 182.583 280.172 186.15 281.294C174.796 279.374 163.853 274.873 153.257 269.824C155.54 268.858 158.006 268.403 160.483 268.491C162.96 268.579 165.388 269.208 167.597 270.333C170.678 271.907 173.26 274.383 176.159 276.341Z" fill="#99592E"/>
<path d="M192.927 286.256C192.364 294.293 191.794 302.317 191.219 310.328C191.161 311.106 191.113 311.883 191.055 312.661C191.055 312.834 191.055 312.997 191.055 313.179C178.222 314.916 165.207 313.678 152.249 313.697C133.686 313.697 114.499 316.251 97.0203 309.465C86.5965 305.414 76.7966 297.4 73.4371 285.968C72.2028 281.38 71.7677 276.614 72.151 271.878C72.2277 270.611 72.3429 269.344 72.5061 268.039C73.4659 260.984 78.6203 254.678 84.84 251.856C92.3171 248.468 100.84 249.169 108.769 251.06C123.406 254.582 136.988 261.886 150.685 268.519C151.558 268.951 152.432 269.363 153.315 269.776C163.873 274.825 174.853 279.374 186.208 281.246C188.535 281.638 190.88 281.911 193.234 282.062C193.081 283.492 192.985 284.884 192.927 286.256Z" fill="#296261"/>
<path d="M250.575 286.275C250.888 287.229 250.91 288.254 250.638 289.22C250.366 290.185 249.813 291.048 249.048 291.698C247.54 292.874 245.773 293.673 243.894 294.031C226.118 298.83 207.708 301.815 191.17 310.348C191.746 302.324 192.316 294.299 192.879 286.275C195.202 284.433 198.254 283.866 201.162 283.789C204.387 283.713 207.641 284.125 210.818 283.53C217.201 282.359 222.816 277.253 229.276 277.551C234.574 277.791 239.153 281.649 244.316 282.954C246.678 283.521 249.557 283.895 250.575 286.275Z" fill="#B56F40"/>
<path d="M202.334 71.0266C202.195 73.6055 201.874 76.1714 201.374 78.7051C200.28 84.464 198.686 90.3093 194.847 94.7341C193.293 96.5365 191.431 98.0478 189.347 99.1972C187.902 100.001 186.373 100.645 184.788 101.117C181.763 102.023 178.59 102.323 175.449 102C168.461 101.299 162.011 97.7095 156.981 92.7472C162.019 103.009 169.465 111.901 178.683 118.662C177.959 118.901 177.218 119.087 176.466 119.219C170.131 120.38 163.508 118.259 158.181 114.67C153.238 111.32 149.284 106.732 145.771 101.894C145.617 101.693 145.463 101.472 145.319 101.27C146.721 96.3306 148.116 91.3939 149.504 86.4604C149.831 85.3375 150.138 84.2145 150.464 83.1011C147.738 81.5732 145.31 79.5672 143.294 77.179C141.12 74.5906 139.97 71.2957 140.06 67.9167C140.064 66.4249 140.629 64.9893 141.643 63.8951C142.431 63.1956 143.454 62.8188 144.507 62.8402C145.56 62.8615 146.567 63.2794 147.326 64.0103H147.431C149.351 58.7409 154.515 55.2567 159.909 53.7306C165.303 52.2045 171.014 52.2525 176.62 51.8878C182.225 51.5231 188.023 50.64 192.687 47.511C194.617 46.2663 196.217 44.5738 197.352 42.5775L197.41 42.6255C199.329 46.724 200.136 51.2639 200.875 55.7271C200.879 55.8038 200.879 55.8807 200.875 55.9574C201.719 60.9965 202.526 65.9971 202.334 71.0266Z" fill="#B56F40"/>
<path d="M194.204 74.3667C194.28 74.6491 194.277 74.9468 194.196 75.2276C194.114 75.5084 193.958 75.7617 193.743 75.96C193.427 76.1841 193.055 76.3139 192.668 76.3344C190.278 76.6223 187.955 75.5761 185.776 74.5491H185.728C185.91 75.1738 185.93 75.8343 185.786 76.4687C185.698 76.7709 185.506 77.0325 185.245 77.2079C184.984 77.3833 184.669 77.4614 184.356 77.4285C183.569 77.2558 183.319 76.2768 183.243 75.5089C182.962 72.3498 183.033 69.1694 183.454 66.0259C186.333 68.771 190.7 69.8076 193.34 72.831C193.755 73.2602 194.053 73.7891 194.204 74.3667Z" fill="#99592E"/>
<path d="M164.19 71.0745C165.46 71.0726 166.703 71.4479 167.761 72.1527C168.818 72.8575 169.643 73.8603 170.13 75.034C170.617 76.2077 170.745 77.4996 170.498 78.7461C170.25 79.9926 169.638 81.1376 168.74 82.0362C167.841 82.9348 166.696 83.5465 165.45 83.794C164.203 84.0414 162.911 83.9135 161.737 83.4263C160.564 82.9391 159.561 82.1146 158.856 81.0572C158.151 79.9997 157.776 78.7569 157.778 77.4861C157.778 75.7857 158.453 74.1549 159.656 72.9525C160.858 71.75 162.489 71.0745 164.19 71.0745Z" fill="#FB5A55"/>
<path d="M185.584 105.186C185.834 106.53 186.083 107.874 186.343 109.218C185.886 111.958 184.592 114.49 182.638 116.464C181.485 117.476 180.135 118.237 178.674 118.701C169.455 111.939 162.01 103.048 156.972 92.7856C161.953 97.7479 168.49 101.338 175.439 102.038C178.58 102.361 181.753 102.061 184.778 101.155C185.076 102.461 185.325 103.824 185.584 105.186Z" fill="#99592E"/>
<path d="M197.333 42.6543C196.198 44.6506 194.598 46.3431 192.668 47.5878C188.003 50.7168 182.206 51.5998 176.6 51.9646C170.995 52.3293 165.293 52.2621 159.89 53.8074C154.486 55.3527 149.331 58.8177 147.412 64.0871H147.306C146.547 63.3562 145.541 62.9383 144.488 62.917C143.434 62.8956 142.412 63.2723 141.624 63.9719C140.61 65.0661 140.044 66.5017 140.04 67.9935C139.95 71.3725 141.101 74.6673 143.275 77.2558C145.29 79.644 147.719 81.65 150.445 83.1779C150.128 84.2913 149.821 85.4142 149.485 86.5372L149.293 86.4796C147.882 83.8881 145.089 82.362 142.315 81.3446C139.541 80.3272 136.604 79.6265 134.108 78.0524C132.548 77.066 131.213 75.7616 130.191 74.2244C129.168 72.6871 128.482 70.9516 128.176 69.1311C127.87 67.3106 127.951 65.4459 128.414 63.6589C128.877 61.8719 129.712 60.2026 130.864 58.7601C131.212 58.3972 131.475 57.961 131.632 57.4835C131.891 56.3509 130.826 55.4007 130.02 54.5465C129.109 53.5932 128.432 52.4423 128.041 51.1837C127.649 49.9251 127.554 48.593 127.764 47.2916C127.973 45.9903 128.48 44.755 129.246 43.6824C130.012 42.6098 131.016 41.7291 132.179 41.109C134.425 39.8901 137.285 39.6213 138.898 37.6441C141.24 34.7646 139.426 30.4454 140.261 26.8461C141.221 22.5653 145.751 20.1274 149.946 18.8604C154.14 17.5935 158.767 16.8064 161.944 13.783C164.142 11.6906 165.351 8.78234 166.858 6.15244C168.365 3.52254 170.486 0.892634 173.442 0.191966C178.136 -0.921423 182.638 3.1674 187.466 2.98504C191.18 2.84106 194.712 0.153574 198.321 1.0654C200.971 1.70848 202.861 4.2136 203.466 6.8723C203.939 9.56967 203.758 12.341 202.938 14.954C202.451 16.3019 202.3 17.748 202.497 19.1676C203.274 22.4214 207.699 23.8707 208.256 27.1629C208.812 30.455 205.376 32.845 204.935 36.0316C204.599 38.5655 206.211 40.8979 206.922 43.3454C207.526 45.7027 207.328 48.1944 206.358 50.4264C205.388 52.6584 203.702 54.5034 201.566 55.6695L200.894 55.775C200.155 51.3023 199.377 46.7719 197.429 42.6735L197.333 42.6543Z" fill="#28384C"/>
<path d="M205.866 23.4484C205.751 22.9685 205.04 23.2372 205.146 23.7171C205.556 25.5249 205.488 27.4082 204.95 29.1819C204.411 30.9557 203.42 32.5587 202.075 33.8336C200.804 35.01 199.27 35.8656 197.602 36.3291C195.558 36.7895 193.442 36.8287 191.382 36.4443C187.744 35.9452 183.751 34.9854 180.248 36.6267C177.215 38.0568 175.929 41.1858 173.942 43.6813C172.956 45.0008 171.604 46.002 170.054 46.5608C168.457 47.0273 166.793 47.2284 165.13 47.1559C161.752 47.1559 158.22 46.6184 154.985 47.8565C151.93 49.1446 149.48 51.5467 148.132 54.5753C147.47 55.9478 147.114 57.8003 145.828 58.7601C145.013 59.2492 144.042 59.4104 143.112 59.2112C142.218 59.0768 141.309 59.0768 140.415 59.2112C137.084 59.8735 134.848 62.9737 134.464 66.2179C133.993 70.1915 135.788 73.8964 137.91 77.1598C138.447 77.9756 139.004 78.7819 139.56 79.5785C139.623 79.6508 139.71 79.6972 139.805 79.7088C139.899 79.7203 139.995 79.6962 140.073 79.6411C140.151 79.5859 140.205 79.5038 140.226 79.4106C140.247 79.3174 140.232 79.2199 140.184 79.137C137.9 75.864 135.481 72.4183 135.184 68.2623C134.994 66.3569 135.443 64.4425 136.46 62.8201C137.354 61.4457 138.72 60.4454 140.3 60.0078C142.056 59.5759 143.976 60.5069 145.665 59.7199C147.105 59.0576 147.719 57.5123 148.276 56.1302C149.389 52.9478 151.695 50.3221 154.707 48.8068C160.782 46.0905 168.691 50.3905 173.798 45.0539C175.977 42.7791 177.071 39.4581 179.845 37.7593C183.195 35.7052 187.418 36.7226 191.036 37.2409C193.068 37.6056 195.148 37.6056 197.179 37.2409C199.73 36.6978 202.015 35.2919 203.65 33.2603C205.285 31.2286 206.169 28.6955 206.154 26.0879C206.157 25.2 206.061 24.3146 205.866 23.4484Z" fill="#141C3F"/>
<path d="M202.007 5.06784C199.07 4.84708 196.699 7.20823 195.768 9.86693C194.616 13.0727 195.068 16.5857 194.261 19.8202C193.943 21.3045 193.222 22.6726 192.178 23.7747C190.955 24.8902 189.395 25.5657 187.744 25.6943C184.231 26.0687 180.651 24.6577 177.186 25.8863C174.306 26.9037 172.329 29.332 170.736 31.8084C169.248 34.1119 167.856 36.8666 165.284 38.1816C162.116 39.8325 158.488 38.3063 155.186 37.9896C152.029 37.6638 148.871 38.6025 146.404 40.6003C143.832 42.7119 142.507 45.8217 140.472 48.3844C138.658 50.6688 135.769 52.7708 132.707 51.5998C132.081 51.3632 131.526 50.9699 131.094 50.4576C130.787 50.0833 130.135 50.5152 130.471 50.8992C132.304 53.0971 135.567 53.0683 137.9 51.7342C140.779 50.1025 142.286 47.0503 144.062 44.4396C144.98 42.9976 146.151 41.7329 147.517 40.7059C148.86 39.7705 150.389 39.1354 152 38.8438C155.446 38.2392 158.719 39.7365 162.155 39.6885C163.68 39.6881 165.17 39.2337 166.436 38.3831C167.567 37.5495 168.541 36.5228 169.315 35.3501C171.043 32.9218 172.358 30.1575 174.69 28.2187C175.93 27.1439 177.453 26.4476 179.077 26.2126C180.899 26.0861 182.731 26.1569 184.538 26.4238C187.706 26.6925 191.19 26.3182 193.292 23.6211C195.394 20.924 195.355 17.6703 195.615 14.5892C195.874 11.5082 196.574 7.73613 199.732 6.27721C200.383 5.96199 201.104 5.82299 201.825 5.87408C202.353 5.85489 202.525 5.10623 202.007 5.06784Z" fill="#141C3F"/>
<path d="M174.613 61.6779C174.45 62.903 174.154 64.1067 173.73 65.2677C173.385 66.1123 172.703 67.5808 171.552 67.3505C170.4 67.1201 169.814 65.8148 169.363 64.9701C168.794 63.9058 168.404 62.7544 168.211 61.5627C168.135 61.0828 167.367 61.1404 167.453 61.6299C167.627 62.6998 167.951 63.7401 168.413 64.7206C168.832 65.7012 169.423 66.5986 170.16 67.3697C170.468 67.723 170.884 67.9659 171.343 68.0612C171.802 68.1565 172.28 68.099 172.703 67.8976C173.544 67.3374 174.165 66.503 174.46 65.5364C174.909 64.332 175.231 63.0838 175.42 61.8123C175.437 61.7054 175.412 61.5958 175.349 61.5076C175.286 61.4194 175.191 61.3598 175.084 61.342C174.977 61.3242 174.867 61.3496 174.779 61.4126C174.691 61.4756 174.631 61.571 174.613 61.6779Z" fill="#252626"/>
<path d="M196.248 59.3552C196.06 60.5755 195.765 61.7768 195.365 62.9449C195.171 63.5257 194.947 64.096 194.693 64.6534C194.511 65.0757 194.299 65.6132 193.858 65.8339C193.602 65.9018 193.333 65.9022 193.078 65.8348C192.822 65.7675 192.588 65.6349 192.399 65.45C191.979 65.1264 191.61 64.7413 191.305 64.3078C190.686 63.4551 190.216 62.5044 189.913 61.4956C189.873 61.4081 189.801 61.339 189.713 61.3018C189.624 61.2645 189.525 61.2619 189.434 61.2945C189.344 61.3271 189.269 61.3925 189.224 61.4777C189.179 61.5629 189.168 61.6618 189.193 61.7547C189.669 63.61 190.796 65.2319 192.37 66.3234C192.749 66.5854 193.213 66.6944 193.669 66.6285C194.124 66.5627 194.538 66.3268 194.827 65.9683C195.1 65.5823 195.323 65.1629 195.49 64.7205C195.71 64.2022 195.922 63.6647 196.104 63.1272C196.506 61.9395 196.805 60.7192 196.997 59.4799C196.998 59.3882 196.966 59.2991 196.907 59.2287C196.848 59.1583 196.766 59.1113 196.676 59.0962C196.585 59.0812 196.492 59.099 196.414 59.1465C196.335 59.194 196.277 59.268 196.248 59.3552Z" fill="#252626"/>
<path d="M184.558 89.8486C182.068 90.1539 179.541 89.9081 177.157 89.1287C175.161 88.4761 172.819 87.4394 171.984 85.3566C171.967 85.31 171.941 85.2672 171.907 85.2306C171.873 85.194 171.833 85.1644 171.788 85.1435C171.697 85.1012 171.593 85.0967 171.499 85.1311C171.405 85.1655 171.328 85.2358 171.286 85.3267C171.243 85.4176 171.239 85.5216 171.273 85.6158C172.166 87.8522 174.518 89.0327 176.668 89.7718C179.224 90.6417 181.943 90.9271 184.625 90.6068C185.105 90.5493 185.047 89.791 184.558 89.8486Z" fill="#252626"/>
<path d="M174.066 54.7096C173.953 54.4321 173.738 54.2081 173.465 54.0833C173.192 53.9586 172.882 53.9423 172.598 54.0378C170.358 54.6562 168.213 55.5799 166.225 56.7829C166.102 56.8698 165.998 56.98 165.919 57.1071C165.839 57.2343 165.785 57.3758 165.76 57.5238C165.735 57.6718 165.74 57.8232 165.773 57.9695C165.807 58.1157 165.869 58.2539 165.956 58.3761C166.135 58.619 166.401 58.7829 166.698 58.833C166.995 58.8832 167.301 58.8157 167.549 58.6449C167.799 58.4913 168.058 58.3474 168.317 58.2034L168.567 58.069L168.835 57.925C169.315 57.6851 169.795 57.4547 170.304 57.2532C171.306 56.821 172.339 56.4649 173.395 56.1878C173.679 56.08 173.909 55.8642 174.035 55.5872C174.161 55.3103 174.172 54.9948 174.066 54.7096Z" fill="#28384C"/>
<path d="M196.872 54.2201C194.544 53.504 192.118 53.1607 189.683 53.2027C189.533 53.2148 189.386 53.2565 189.252 53.3254C189.118 53.3942 188.999 53.489 188.902 53.604C188.805 53.7191 188.731 53.8523 188.686 53.996C188.64 54.1396 188.624 54.2908 188.637 54.4409C188.671 54.7396 188.818 55.0138 189.049 55.2068C189.279 55.3997 189.575 55.4967 189.875 55.4775C190.377 55.452 190.88 55.452 191.382 55.4775C191.967 55.4775 192.543 55.5735 193.119 55.6599C194.251 55.8324 195.368 56.0923 196.459 56.4373C196.61 56.462 196.764 56.4567 196.913 56.4219C197.061 56.387 197.202 56.3231 197.325 56.234C197.449 56.1448 197.554 56.0321 197.635 55.9023C197.715 55.7725 197.769 55.6282 197.794 55.4775C197.819 55.1917 197.739 54.9065 197.57 54.6751C197.4 54.4437 197.152 54.282 196.872 54.2201Z" fill="#28384C"/>
<path d="M207.689 169.322C202.026 167.507 195.95 168.717 190.22 169.513C184.778 170.262 178.837 170.742 173.807 168.074C171.425 166.766 169.527 164.726 168.395 162.256C167.263 159.785 166.956 157.016 167.52 154.358C167.971 151.939 168.758 149.559 169.257 147.169C169.421 147.101 169.556 146.979 169.641 146.823C171.331 143.944 175.18 143.944 178.088 143.742C180.819 143.584 183.485 142.838 185.901 141.554C188.165 140.354 190.042 138.537 191.314 136.313C192.59 133.676 193.153 130.751 192.946 127.829C192.889 124.69 192.437 121.532 192.85 118.403C193.275 115.563 194.414 112.878 196.162 110.6C197.926 108.331 199.851 106.192 201.921 104.198C204.058 102.243 205.889 99.9784 207.353 97.4791C210.626 91.1635 207.065 83.485 202.554 78.7531C201.882 78.0428 200.913 79.2138 201.594 79.9241C205.693 84.2528 208.966 91.3843 205.827 97.0952C204.474 99.5523 202.372 101.53 200.423 103.516C198.443 105.442 196.608 107.511 194.933 109.707C193.338 111.82 192.2 114.243 191.593 116.819C191.135 119.741 191.061 122.709 191.372 125.65C191.526 128.635 191.65 131.773 190.47 134.586C189.393 136.963 187.556 138.914 185.248 140.133C182.369 141.784 179.24 142.053 175.976 142.322C173.689 142.369 171.472 143.123 169.632 144.481C169.843 142.49 169.538 140.477 168.749 138.636C166.704 133.952 162.366 130.9 158.315 128.078C154.082 125.103 149.571 121.763 148.343 116.436C147.008 110.677 149.35 104.745 151.51 99.4756C153.564 94.4269 155.916 88.9176 155.196 83.3506C154.697 79.4442 152.729 75.4033 149.322 73.2725C149.406 72.9288 149.464 72.579 149.494 72.2263C149.555 71.4015 149.344 70.5795 148.894 69.886C148.443 69.1926 147.777 68.6661 146.999 68.3871C146.22 68.1412 145.381 68.1584 144.613 68.4359C143.845 68.7134 143.189 69.2359 142.747 69.9228C142.335 70.5344 142.087 71.2417 142.027 71.9768C141.875 72.8925 141.991 73.8327 142.363 74.6835C142.723 75.4465 143.342 76.0576 144.11 76.4088C144.877 76.7601 145.744 76.8289 146.557 76.6031C147.029 76.463 147.468 76.2305 147.848 75.919C148.229 75.6076 148.544 75.2234 148.774 74.789C151.279 76.6493 152.979 79.396 153.526 82.4676C154.639 87.9769 152.326 93.5151 150.281 98.5253C148.237 103.536 146.087 108.891 146.528 114.468C146.941 119.728 150.061 123.701 154.082 126.859C158.104 130.017 162.606 132.388 165.687 136.457C167.283 138.447 168.183 140.905 168.25 143.454C168.25 146.228 167.29 148.925 166.608 151.574C165.821 154.053 165.569 156.67 165.869 159.253C166.267 161.724 167.317 164.043 168.912 165.972C172.175 169.888 177.205 171.366 182.129 171.558C188.089 171.788 193.906 170.118 199.828 169.888C205.126 169.686 211.577 170.934 213.909 176.357C214.419 177.511 214.627 178.776 214.514 180.033C214.418 180.993 215.925 181.281 216.011 180.311C216.529 175.052 212.46 170.848 207.689 169.322ZM146.989 75.6433C146.398 75.9823 145.703 76.0942 145.036 75.9582C144.368 75.8221 143.773 75.4475 143.361 74.9042C142.891 74.2224 142.677 73.3963 142.756 72.5719C142.774 71.9686 142.901 71.3736 143.131 70.8154C143.164 70.7863 143.19 70.7503 143.207 70.7098C143.265 70.6042 143.332 70.4986 143.399 70.3931C143.452 70.3277 143.51 70.2667 143.572 70.2107C143.634 70.1588 143.678 70.0881 143.697 70.0091C144.021 69.6458 144.43 69.368 144.887 69.2006C145.344 69.0332 145.835 68.9812 146.317 69.0493C146.945 69.1595 147.521 69.4661 147.962 69.9251C148.404 70.384 148.688 70.9714 148.774 71.6024C148.814 72.0367 148.782 72.4745 148.678 72.8982H148.63C148.067 72.6139 147.475 72.3888 146.864 72.2263C146.841 72.1444 146.813 72.0642 146.778 71.9864C146.673 71.7573 146.519 71.5542 146.327 71.3913C146.124 71.2391 145.887 71.1401 145.636 71.1033C145.385 71.0628 145.129 71.0962 144.897 71.1993C144.683 71.2855 144.498 71.4282 144.359 71.612C144.279 71.7241 144.214 71.8468 144.167 71.9768L144.11 72.0632C144.014 72.3078 143.965 72.5683 143.966 72.831C143.973 72.9549 143.996 73.0773 144.033 73.1957C144.067 73.3253 144.122 73.4484 144.196 73.5605C144.324 73.7544 144.499 73.9128 144.705 74.0212C144.749 74.0513 144.797 74.074 144.849 74.0884C144.96 74.1337 145.076 74.1659 145.194 74.1844C145.433 74.2199 145.677 74.1968 145.905 74.1172C146.13 74.0331 146.331 73.8946 146.49 73.714C147.068 73.8893 147.625 74.1275 148.151 74.4243C147.887 74.9324 147.484 75.3551 146.989 75.6433Z" fill="#252626"/>
<path d="M120.479 335.188C120.427 335.53 120.29 335.853 120.08 336.128C119.87 336.403 119.595 336.621 119.279 336.762C118.643 337.037 117.964 337.2 117.273 337.242C110.679 338.019 103.758 338.749 97.5675 336.503C95.6478 333.911 93.8337 331.281 92.0964 328.584C90.5095 326.146 89.0345 323.648 87.6716 321.088C82.7989 311.893 79.5947 301.906 78.2076 291.593L78.1308 291.439C72.4834 294.207 66.236 295.527 59.9515 295.279V295.566C62.2459 296.168 64.4918 296.942 66.6704 297.88C70.5961 299.55 74.6946 302.276 75.3857 306.518C75.5855 308.557 75.2548 310.614 74.4258 312.488C72.4207 317.902 69.008 322.683 64.5395 326.338C67.8414 326.338 71.1432 325.868 74.4546 325.983C77.7661 326.098 81.1735 326.809 83.7746 328.863C85.1957 329.978 86.2573 331.487 86.8269 333.201C87.2867 334.542 87.3269 335.992 86.9421 337.357H28.3921C21.8861 336.111 15.8669 333.045 11.0331 328.516C6.19933 323.986 2.74914 318.179 1.08299 311.768C-0.583151 305.357 -0.396939 298.604 1.62002 292.295C3.63698 285.985 7.40198 280.377 12.4781 276.121C15.8183 273.308 19.9648 271.072 24.3224 271.321C24.7668 271.284 25.2134 271.363 25.6175 271.552C26.0217 271.74 26.3694 272.032 26.626 272.396C27.2595 273.654 25.8582 274.94 24.6488 275.65C22.5947 276.84 20.4927 277.983 18.5538 279.355C13.1742 283.206 9.25653 288.765 7.43874 295.126C5.62095 301.487 6.01007 308.277 8.54273 314.388C9.42993 316.659 10.7687 318.726 12.4781 320.464C14.0945 322.105 16.2126 323.159 18.4962 323.459C18.0794 316.18 19.5373 308.917 22.7303 302.363C25.9233 295.809 30.7446 290.184 36.7331 286.026C41.6475 282.705 47.1761 280.459 52.5512 277.963C59.0061 275.023 65.189 271.519 71.028 267.492C74.733 264.891 78.3228 261.944 80.8087 258.172C78.5479 256.448 76.6797 254.262 75.3281 251.76C74.7503 250.623 74.4014 249.384 74.3011 248.113C74.2648 246.975 74.4239 245.838 74.7714 244.754C75.8702 241.638 77.5545 238.761 79.7337 236.278C78.4869 233.02 77.7739 229.581 77.6221 226.095C77.6221 225.922 77.8717 225.884 78.0444 225.903C81.298 226.229 84.3832 227.508 86.9133 229.579C89.4082 229.092 91.9444 228.847 94.4864 228.849C97.1722 228.842 99.8233 229.457 102.232 230.644C102.421 230.243 102.704 229.894 103.058 229.627C105.492 227.517 108.213 225.762 111.14 224.415V224.501C111.756 225.419 112.154 226.467 112.301 227.563C113.018 230.384 113.322 233.294 113.203 236.202C116.283 241.454 117.999 247.393 118.194 253.478C118.385 259.667 117.934 265.859 116.851 271.955C115.443 281.246 113.674 290.47 111.543 299.626C110.259 304.572 109.297 309.596 108.663 314.667C108.056 319.701 108.645 324.808 110.381 329.573C112.096 329.736 113.783 330.116 115.401 330.705C117.54 331.601 119.324 333.177 120.479 335.188Z" fill="#FFD6CF"/>
<path d="M100.111 240.041C101.167 240.041 102.031 241.27 102.031 242.786C102.031 244.303 101.177 245.541 100.111 245.541C99.0457 245.541 98.1914 244.312 98.1914 242.786C98.1914 241.26 99.0553 240.041 100.111 240.041Z" fill="#28384C"/>
<path d="M84.1108 244.802C85.1657 244.802 86.0208 243.568 86.0208 242.047C86.0208 240.526 85.1657 239.292 84.1108 239.292C83.0559 239.292 82.2007 240.526 82.2007 242.047C82.2007 243.568 83.0559 244.802 84.1108 244.802Z" fill="#28384C"/>
<path d="M94.9281 246.414C94.3824 247.533 93.674 248.565 92.8261 249.476C92.6246 249.725 92.3639 249.92 92.0678 250.042C91.4743 250.191 90.8463 250.109 90.3113 249.812C88.8045 249.163 87.5648 248.018 86.7983 246.568C89.4178 245.625 92.2749 245.571 94.9281 246.414Z" fill="#28384C"/>
<path d="M107.502 246.318C108.342 246.316 109.163 246.564 109.863 247.029C110.562 247.495 111.107 248.157 111.429 248.933C111.752 249.708 111.836 250.562 111.673 251.386C111.51 252.21 111.105 252.966 110.511 253.56C109.918 254.154 109.161 254.559 108.337 254.722C107.513 254.885 106.659 254.8 105.884 254.478C105.108 254.156 104.445 253.611 103.98 252.912C103.515 252.212 103.267 251.391 103.269 250.551C103.269 249.428 103.715 248.352 104.509 247.558C105.303 246.764 106.379 246.318 107.502 246.318Z" fill="#FB5A55"/>
<path d="M87.6717 321.088C89.0347 323.66 90.5512 326.146 92.0965 328.584C90.5917 330.382 88.8174 331.936 86.8366 333.191C86.267 331.477 85.2055 329.968 83.7844 328.853C81.1832 326.799 77.7662 326.079 74.4644 325.973C71.1625 325.868 67.8511 326.309 64.5493 326.329C69.0257 322.68 72.4456 317.902 74.4548 312.488C75.2604 310.608 75.571 308.552 75.357 306.518C74.6755 302.304 70.5578 299.578 66.6417 297.88C64.4604 296.946 62.2151 296.17 59.9229 295.557V295.279C66.204 295.525 72.4479 294.205 78.0925 291.439L78.1693 291.593C79.5639 301.91 82.7814 311.897 87.6717 321.088Z" fill="#FB5A55"/>
<path d="M20.8958 277.56C20.6089 277.152 20.343 276.729 20.0992 276.293V276.226L20.0416 276.111C19.9762 275.993 19.9185 275.871 19.8688 275.746C19.7581 275.521 19.6588 275.29 19.5712 275.055C19.3827 274.592 19.2224 274.117 19.0913 273.635L19.0049 273.299V273.251V273.107C19.0049 272.848 18.909 272.579 18.8706 272.32C18.839 272.019 18.6925 271.743 18.4618 271.548C18.231 271.353 17.9339 271.254 17.6324 271.273C17.3327 271.305 17.0571 271.452 16.8637 271.683C16.6702 271.914 16.5742 272.211 16.5958 272.512C16.9097 274.806 17.7688 276.991 19.1009 278.885C19.1879 279.008 19.2982 279.112 19.4256 279.193C19.553 279.273 19.6949 279.327 19.8433 279.353C19.9917 279.378 20.1437 279.374 20.2905 279.341C20.4373 279.307 20.5762 279.245 20.6991 279.158C20.822 279.071 20.9265 278.961 21.0068 278.834C21.087 278.706 21.1414 278.564 21.1668 278.416C21.1922 278.268 21.1881 278.116 21.1548 277.969C21.1215 277.822 21.0596 277.683 20.9726 277.56H20.8958Z" fill="#FCEFEB"/>
<path d="M16.615 280.66C16.4134 280.488 16.2119 280.325 16.0199 280.142L15.7031 279.835L15.588 279.72L15.5016 279.624L15.4248 279.547C15.3867 279.505 15.3514 279.46 15.3192 279.413L15.0697 279.115C14.8969 278.894 14.7337 278.674 14.5705 278.443C14.4218 278.23 14.2841 278.009 14.1578 277.781C14.0882 277.672 14.0241 277.56 13.9658 277.445L13.8891 277.291C13.6465 276.796 13.4412 276.282 13.2748 275.756C13.1691 275.472 12.955 275.242 12.6796 275.116C12.4042 274.99 12.0901 274.978 11.8062 275.084C11.5254 275.194 11.2978 275.408 11.1708 275.681C11.0439 275.955 11.0274 276.267 11.1247 276.552C11.8765 278.852 13.2723 280.887 15.1464 282.417C15.3781 282.613 15.6781 282.709 15.9805 282.684C16.2829 282.658 16.563 282.514 16.759 282.283C16.955 282.051 17.0509 281.751 17.0257 281.448C17.0005 281.146 16.8562 280.866 16.6246 280.67L16.615 280.66Z" fill="#FCEFEB"/>
<path d="M12.6893 285.066C12.4205 284.941 12.1614 284.807 11.9022 284.663L11.6911 284.538L11.3551 284.308C10.87 283.948 10.4143 283.55 9.99216 283.118L9.83859 282.935L9.56024 282.59C9.37787 282.35 9.2051 282.11 9.05152 281.86C8.96567 281.738 8.88868 281.61 8.82116 281.476C8.78158 281.423 8.74929 281.365 8.72518 281.304C8.5908 281.025 8.46602 280.747 8.35084 280.459C8.24306 280.177 8.02874 279.948 7.75405 279.822C7.47935 279.697 7.16629 279.684 6.88229 279.787C6.60167 279.897 6.3747 280.111 6.24933 280.385C6.12396 280.659 6.11 280.971 6.21041 281.256C7.2246 283.873 9.21294 285.995 11.7583 287.178C11.8955 287.256 12.0476 287.306 12.205 287.323C12.3624 287.34 12.5215 287.324 12.6724 287.276C12.8233 287.228 12.9626 287.15 13.0814 287.045C13.2003 286.941 13.2962 286.812 13.3629 286.669C13.4297 286.525 13.4659 286.37 13.4692 286.211C13.4725 286.053 13.443 285.896 13.3823 285.75C13.3217 285.604 13.2314 285.472 13.117 285.362C13.0027 285.253 12.8668 285.168 12.7181 285.114L12.6893 285.066Z" fill="#FCEFEB"/>
<path d="M9.4927 289.654C8.96635 289.469 8.45596 289.241 7.96657 288.972L7.61143 288.761L7.48665 288.694H7.42906C7.1891 288.531 6.94914 288.358 6.71878 288.176C6.48842 287.993 6.28685 287.821 6.08529 287.629L5.75894 287.293L5.64376 287.178C5.4531 286.975 5.27972 286.757 5.12545 286.525C5.12228 286.496 5.12228 286.467 5.12545 286.439C5.11924 286.407 5.11924 286.374 5.12545 286.343V286.295C5.12212 286.24 5.12212 286.186 5.12545 286.131C5.11713 285.969 5.07438 285.811 5.00005 285.667C4.92572 285.523 4.82152 285.396 4.69438 285.295C4.56724 285.194 4.42008 285.122 4.2627 285.082C4.10533 285.043 3.94135 285.037 3.78168 285.066C3.48299 285.1 3.20877 285.247 3.0158 285.478C2.82283 285.708 2.7259 286.004 2.74506 286.304C2.80152 287.062 3.11669 287.777 3.63771 288.329C4.08643 288.861 4.58105 289.353 5.11585 289.798C6.13392 290.627 7.28634 291.277 8.52327 291.718C8.7982 291.845 9.11243 291.858 9.39684 291.753C9.68124 291.649 9.91253 291.436 10.0398 291.161C10.1671 290.886 10.1799 290.572 10.0755 290.287C9.97114 290.003 9.75804 289.772 9.48311 289.644L9.4927 289.654Z" fill="#FCEFEB"/>
<path d="M117.945 254.697C111.923 257.619 105.417 259.411 98.7482 259.986C95.4423 260.279 92.1161 260.259 88.8139 259.928C85.5408 259.602 82.095 259.132 79.2827 257.414C78.0157 256.655 77.0559 258.729 78.3229 259.477C81.2024 261.234 84.7346 261.781 88.0844 262.146C98.6167 263.287 109.258 261.452 118.799 256.847C120.057 256.204 119.279 254.054 117.945 254.697Z" fill="#53A99E"/>
<path d="M95.0721 263.605C94.4596 263.294 93.7784 263.143 93.092 263.167C92.4055 263.19 91.7362 263.387 91.1464 263.739C90.9112 263.733 90.681 263.808 90.4937 263.95C89.7785 264.495 89.2681 265.265 89.0452 266.136C88.8222 267.007 88.8997 267.928 89.2651 268.749C89.6461 269.578 90.2761 270.268 91.0675 270.722C91.8589 271.176 92.7723 271.372 93.6803 271.283C94.584 271.232 95.4467 270.889 96.1389 270.305C96.8311 269.722 97.3156 268.93 97.5197 268.048C97.6419 267.143 97.4699 266.223 97.0293 265.423C96.5886 264.622 95.9025 263.985 95.0721 263.605Z" fill="#FCEFEB"/>
<path d="M336 316.289V337.856H310.526C308.986 330.691 309.478 323.238 311.947 316.337V316.289H336Z" fill="#FB5A55"/>
<path d="M238.097 280.478H323.609H325.394V282.782H236.273V280.478H238.097Z" fill="#DE3326"/>
<path d="M323.618 262.961H238.366H236.273V260.667H256.814H269.225H280.167H302.742H313.387H325.394V262.961H323.618Z" fill="#DE3326"/>
<path d="M238.366 262.99H323.618C323.014 264.339 322.553 265.748 322.246 267.194L239.892 267.617C239.593 266.013 239.08 264.457 238.366 262.99Z" fill="#FDC66F"/>
<path d="M323.609 280.478H238.097C238.795 279.147 239.327 277.735 239.681 276.274H322.227C322.542 277.719 323.005 279.128 323.609 280.478Z" fill="#FDE5CF"/>
<path d="M322.121 282.791V298.388H304.988C303.151 293.325 303.292 287.755 305.382 282.791H322.121Z" fill="#53A99E"/>
<path d="M239.892 267.588L322.246 267.165C321.844 269.057 321.695 270.994 321.805 272.924L240.218 271.965C240.286 270.498 240.177 269.028 239.892 267.588Z" fill="#FDE5CF"/>
<path d="M322.246 276.274H239.7C240.054 274.89 240.248 273.47 240.276 272.041L321.862 273.001C321.91 274.1 322.038 275.194 322.246 276.274Z" fill="#FDC66F"/>
<path d="M311.947 316.289V316.337C309.479 323.238 308.987 330.691 310.526 337.856H297.405C295.745 334.57 295.078 330.871 295.486 327.212C295.922 323.489 296.733 319.82 297.904 316.26H311.947V316.289Z" fill="#FDC66F"/>
<path d="M263.782 282.791H305.381C303.291 287.755 303.151 293.325 304.988 298.388H263.168C263.046 298.304 262.955 298.183 262.909 298.043C262.021 295.572 261.641 292.949 261.791 290.328C261.941 287.707 262.618 285.144 263.782 282.791Z" fill="#FDC66F"/>
<path d="M301.763 312.238H303.558V316.299H297.885H271.902H256.171H240.832H228.863V312.238H230.437H301.763Z" fill="#4D569E"/>
<path d="M230.159 302.448H228.863V298.388H263.168C263.205 298.424 263.255 298.444 263.307 298.444C263.359 298.444 263.409 298.424 263.446 298.388H303.558V302.448H230.159Z" fill="#4D569E"/>
<path d="M301.763 312.238H230.438C230.621 311.519 230.753 310.788 230.831 310.05L300.966 310.578C301.155 311.165 301.423 311.724 301.763 312.238Z" fill="#FDC66F"/>
<path d="M230.159 302.448H300.995C300.784 303.504 300.602 304.579 300.496 305.654L230.658 304.483C230.535 303.795 230.368 303.115 230.159 302.448Z" fill="#FDE5CF"/>
<path d="M300.966 310.578L230.831 310.021C230.924 309.28 230.969 308.533 230.965 307.785L300.429 307.411C300.429 308.489 300.61 309.56 300.966 310.578Z" fill="#FDE5CF"/>
<path d="M230.658 304.483L300.496 305.654C300.435 306.234 300.412 306.818 300.429 307.401L230.965 307.775C230.961 306.671 230.858 305.569 230.658 304.483Z" fill="#FDC66F"/>
<path d="M271.902 316.289H297.885C296.714 319.849 295.903 323.518 295.466 327.24C295.059 330.9 295.726 334.598 297.386 337.885H269.551V337.549C267.686 330.543 268.508 323.094 271.855 316.663L271.902 316.289Z" fill="#FB5A55"/>
<path d="M271.903 316.289V316.663C268.556 323.094 267.734 330.543 269.599 337.549V337.856H256.161V337.664C253.749 330.918 253.766 323.542 256.209 316.807V316.26L271.903 316.289Z" fill="#FDC66F"/>
<path d="M252.744 282.791H263.782C262.618 285.144 261.941 287.707 261.791 290.328C261.641 292.949 262.021 295.572 262.909 298.043C262.955 298.183 263.046 298.304 263.168 298.388H252.744V282.791Z" fill="#53A99E"/>
<path d="M256.171 316.289V316.836C253.727 323.571 253.71 330.947 256.123 337.693V337.885H240.833V316.289H256.171Z" fill="#FB5A55"/>
</g>
<defs>
<clipPath id="clip0">
<rect width="336" height="338" fill="white"/>
</clipPath>
</defs>
</svg>
